﻿apple;ābols
banana;banāns
bath;vanna
big;liels
book;grāmata
bright;gaišs
brown;brūns
carpet;paklājs
cat;kaķis
ceiling;griesti
chair;krēsls
clean;tīrs
clock;pulkstenis
closet;skapis
coat hanger;drēbju pakaramais
computer;dators
computer chair;datorkrēsls
dog;suns
door;durvis
door frame;stendere
drawer;atvilktne
exhaust hood;nosūcējs
expensive;dārgs
faucet;krāns
fence;žogs
floor;grīda
flower pot;puķu pods
fork;dakša
gift;dāvana
guitar;ģitāra
handle;rokturis
high;augsts
house;māja
interesting;interesants
knife;nazis
lamp;lampa
magazine;žurnāls
mirror;spogulis
monitor;monitors
mouse;pele
mousepad;peles paliktnis
napkin;salvete
oven;krāsns
orange;apelsīns
painting;glezna
pear;bumbieris
pen;pildpsalva
pen holder;pildspalvu turētājs
pencil;zīmulis
phone;telefons
picture frame;attēla rāmis
pineapple;ananāss
plate;šķīvis
pole;stabs
radio;radio
refrigerator;ledusskapis
sharp;ass
shelf;plaukts
shirt;krekls
shoe box;kurpju kaste
sneakers;kedas
sock;zeķe
sofa;dīvāns
spoon;karote
table;galds
tap;krāns
tasty;garšīgs
toilet bowl;pods
toilet lid;poda vāks
toilet seat;poda sēdeklis
towel;dvielis
towel rack;dvieļu pakaramais
tree;koks
tv;televizors
tv remote;TV pults
vase;vāze
wall;siena
window;logs
to bite;kost
to draw;zīmēt
to open;atvērt
to paint;krāsot
to play;spēlēt
to read;lasīt
to reflect;atstarot
to sit;sēdēt
to turn on;ieslēgt
to walk;staigāt
to watch;skatīties
to write;rakstīt